Kurtin Comp Bio Project 1: Exploratory Data Analysis
…
# Include categorical variables (Use Gower's
# distance/dissimilarity)
gower <- data_clean %>% mutate_if(is.character, as.factor) %>% 
    column_to_rownames("common_name") %>% daisy("gower") %>% 
    as.matrix %>% as.data.frame %>% rownames_to_column("name1") %>% 
    pivot_longer(-1, names_to = "name2", values_to = "gower")

# See which have the greatest gower similarity or the lowest
# gower similarity
data_clean %>% mutate_if(is.character, as.factor) %>% column_to_rownames("common_name") %>% 
    daisy("gower") %>% as.matrix %>% as.data.frame %>% rownames_to_column("name1") %>% 
    pivot_longer(-1, names_to = "name2", values_to = "gower") %>% 
    filter(name1 != name2) %>% arrange(gower)

## # A tibble: 3,422 x 3
##    name1                         name2                            gower
##    <chr>                         <chr>                            <dbl>
##  1 Eurasian Wigeon               Gadwall × Northern Shoveler   0.000658
##  2 Eurasian Wigeon               Greylag × Canada Goose hybrid 0.000658
##  3 Pacific White-fronted Goose   Gadwall × Northern Shoveler   0.000658
##  4 Pacific White-fronted Goose   Greylag × Canada Goose hybrid 0.000658
##  5 Gadwall × Northern Shoveler   Eurasian Wigeon               0.000658
##  6 Gadwall × Northern Shoveler   Pacific White-fronted Goose   0.000658
##  7 Greylag × Canada Goose hybrid Eurasian Wigeon               0.000658
##  8 Greylag × Canada Goose hybrid Pacific White-fronted Goose   0.000658
##  9 Redhead                       Ring-necked Duck              0.0148  
## 10 Ring-necked Duck              Redhead                       0.0148  
## # ... with 3,412 more rows
…
